…
``` r
bootstrap_weather =
  bootstrap(weather_df, 5000) 

as_data_frame(bootstrap_weather$strap[[1]])
```

    ## Warning: `as_data_frame()` was deprecated in tibble 2.0.0.
    ## Please use `as_tibble()` instead.
    ## The signature and semantics have changed, see `?as_tibble`.
    ## This warning is displayed once every 8 hours.
    ## Call `lifecycle::last_warnings()` to see where this warning was generated.

    ## # A tibble: 365 x 6
    ##    name           id          date        prcp  tmax  tmin
    ##    <chr>          <chr>       <date>     <dbl> <dbl> <dbl>
    ##  1 CentralPark_NY USW00094728 2017-09-14     5  27.2  21.1
    ##  2 CentralPark_NY USW00094728 2017-02-08     8  16.7   3.3
    ##  3 CentralPark_NY USW00094728 2017-01-22    13   8.9   6.1
    ##  4 CentralPark_NY USW00094728 2017-04-22    28  13.9   9.4
    ##  5 CentralPark_NY USW00094728 2017-07-13     0  32.2  22.8
    ##  6 CentralPark_NY USW00094728 2017-09-21     0  26.7  21.7
    ##  7 CentralPark_NY USW00094728 2017-10-20     0  22.8  13.9
    ##  8 CentralPark_NY USW00094728 2017-11-28     0  12.2   2.2
    ##  9 CentralPark_NY USW00094728 2017-04-16     0  30.6  15  
    ## 10 CentralPark_NY USW00094728 2017-08-07   193  21.7  17.8
    ## # ... with 355 more rows
…
